…
### Preprocesamiento e ingeniería de variables

Un ejemplo de las capacidades de recipe, notar como se crean
automáticamente columnas año, mes y día para las fechas

``` r
rct_actloss <- train %>% recipe(UltimateIncurredClaimCost ~ . ) %>% 
  update_role( ClaimNumber, new_role ='id') %>% 
  step_date(DateTimeOfAccident, DateReported, ordinal = TRUE) %>% prep
  
rct_actloss %>% summary()
```

    ## # A tibble: 21 x 4
    ##    variable           type      role      source  
    ##    <chr>              <list>    <chr>     <chr>   
    ##  1 ClaimNumber        <chr [3]> id        original
    ##  2 DateTimeOfAccident <chr [1]> predictor original
    ##  3 DateReported       <chr [1]> predictor original
    ##  4 Age                <chr [2]> predictor original
    ##  5 Gender             <chr [3]> predictor original
    ##  6 MaritalStatus      <chr [3]> predictor original
    ##  7 DependentChildren  <chr [2]> predictor original
    ##  8 DependentsOther    <chr [2]> predictor original
    ##  9 WeeklyWages        <chr [2]> predictor original
    ## 10 PartTimeFullTime   <chr [3]> predictor original
    ## # i 11 more rows
…
#### Afinamiento de hiperparámetros

##### Malla de busqueda

``` r
grid_cro <- crossing(
  penalty = seq(0.1, 0.9, 0.2),
  mixture = seq(0.0, 1, 0.2)
)
grid_cro 
```

    ## # A tibble: 30 x 2
    ##    penalty mixture
    ##      <dbl>   <dbl>
    ##  1     0.1     0  
    ##  2     0.1     0.2
    ##  3     0.1     0.4
    ##  4     0.1     0.6
    ##  5     0.1     0.8
    ##  6     0.1     1  
    ##  7     0.3     0  
    ##  8     0.3     0.2
    ##  9     0.3     0.4
    ## 10     0.3     0.6
    ## # i 20 more rows
…
Entrenar el modelo Final

``` r
mod_glm_fit <- fit(wflow_fin_glm, train)
mod_glm_fit %>% tidy
```

    ## # A tibble: 76 x 3
    ##    term                        estimate penalty
    ##    <chr>                          <dbl>   <dbl>
    ##  1 (Intercept)                   13211.     0.1
    ##  2 Age                             874.     0.1
    ##  3 WeeklyWages                    1641.     0.1
    ##  4 HoursWorkedPerWeek             -111.     0.1
    ##  5 InitialIncurredCalimsCost     12605.     0.1
    ##  6 DateTimeOfAccident_year           0      0.1
    ##  7 DateReported_year              1885.     0.1
    ##  8 tf_ClaimDescription_back       1865.     0.1
    ##  9 tf_ClaimDescription_bruised   -2720.     0.1
    ## 10 tf_ClaimDescription_eye       -2921.     0.1
    ## # i 66 more rows
…
